[
  {
    "type": "delete",
    "url": "/campanha/:identificador",
    "title": "Apagar uma campanha",
    "group": "Campanha",
    "parameter": {
      "fields": {
        "Parameter": [
          {
            "group": "Parameter",
            "type": "String",
            "optional": false,
            "field": "identificador",
            "description": "<p>Identificador Campanha.</p>"
          }
        ]
      }
    },
    "success": {
      "fields": {
        "Success 200": [
          {
            "group": "Success 200",
            "type": "String",
            "optional": false,
            "field": "status",
            "description": "<p>Apagado</p>"
          }
        ]
      },
      "examples": [
        {
          "title": "Sucesso",
          "content": "HTTP/1.1 200 OK\n{\n  \"status\": \"Apagado.\"\n}",
          "type": "json"
        }
      ]
    },
    "version": "0.0.0",
    "filename": "./campanha.js",
    "groupTitle": "Campanha",
    "name": "DeleteCampanhaIdentificador"
  },
  {
    "type": "get",
    "url": "/campanha",
    "title": "Campanha",
    "group": "Campanha",
    "success": {
      "fields": {
        "Success 200": [
          {
            "group": "Success 200",
            "type": "String",
            "optional": false,
            "field": "status",
            "description": "<p>Ver as campanhas</p>"
          }
        ]
      },
      "examples": [
        {
          "title": "Sucesso",
          "content": "  HTTP/1.1 200 OK\n  {\n  \"Data\": [\n    {\n      \"id\": 1,\n      \"identificacao\": \"001\",\n      \"objetivo\": \"Teste Insis\",\n      \"conteudo\": \"Tarifarios Moveis\",\n      \"canais\": \"SMS\",\n      \"idade\": \"Mais de 25\",\n      \"pais\": \"pt\",\n      \"estado\": \"Enviado\",\n      \"timetosend\": \"\",\n      \"timestamp\": \"2018-03-18 01:31:55\"\n    }\n  ]\n}",
          "type": "json"
        }
      ]
    },
    "error": {
      "fields": {
        "Error 4xx": [
          {
            "group": "Error 4xx",
            "optional": false,
            "field": "CampanhaNotFound",
            "description": "<p>Campanha was not found.</p>"
          }
        ]
      },
      "examples": [
        {
          "title": "Error-Response:",
          "content": "HTTP/1.1 404 Not Found\n{\n  \"error\": \"No data Found..\"\n}",
          "type": "json"
        }
      ]
    },
    "version": "0.0.0",
    "filename": "./campanha.js",
    "groupTitle": "Campanha",
    "name": "GetCampanha"
  },
  {
    "type": "get",
    "url": "/campanha/:identificador",
    "title": "Campanha com identificador",
    "group": "Campanha",
    "success": {
      "fields": {
        "Success 200": [
          {
            "group": "Success 200",
            "type": "String",
            "optional": false,
            "field": "status",
            "description": "<p>Ver as campanhas</p>"
          }
        ]
      },
      "examples": [
        {
          "title": "Sucesso",
          "content": "HTTP/1.1 200 OK\n  {\n    \"id\": 1,\n    \"identificacao\": \"001\",\n    \"objetivo\": \"Teste Insis\",\n    \"conteudo\": \"Tarifarios Moveis\",\n    \"canais\": \"SMS\",\n    \"idade\": \"Mais de 25\",\n    \"pais\": \"pt\",\n    \"estado\": \"Enviado\",\n    \"timetosend\": \"\",\n    \"timestamp\": \"2018-03-18 01:31:55\"\n  }",
          "type": "json"
        }
      ]
    },
    "version": "0.0.0",
    "filename": "./campanha.js",
    "groupTitle": "Campanha",
    "name": "GetCampanhaIdentificador"
  },
  {
    "type": "get",
    "url": "/campanha/:identificador/conteudo/:canal",
    "title": "Conteudo de Canal por identificador de campanha",
    "group": "Campanha",
    "success": {
      "fields": {
        "Success 200": [
          {
            "group": "Success 200",
            "type": "String",
            "optional": false,
            "field": "status",
            "description": "<p>Conteudo de Canal por identificador de campanha</p>"
          }
        ]
      },
      "examples": [
        {
          "title": "Sucesso",
          "content": "HTTP/1.1 200 OK\n{\n    \"conteudo\": \"Tarifarios Moveis\",\n}",
          "type": "json"
        }
      ]
    },
    "version": "0.0.0",
    "filename": "./campanha.js",
    "groupTitle": "Campanha",
    "name": "GetCampanhaIdentificadorConteudoCanal"
  },
  {
    "type": "post",
    "url": "/campanha",
    "title": "Campanha",
    "group": "Campanha",
    "parameter": {
      "fields": {
        "Parameter": [
          {
            "group": "Parameter",
            "type": "String",
            "optional": false,
            "field": "identificacao",
            "description": "<p>opcional.</p>"
          },
          {
            "group": "Parameter",
            "type": "String",
            "optional": false,
            "field": "objetivo",
            "description": "<p>opcional.</p>"
          },
          {
            "group": "Parameter",
            "type": "String",
            "optional": false,
            "field": "conteudo",
            "description": "<p>opcional.</p>"
          },
          {
            "group": "Parameter",
            "type": "String",
            "optional": false,
            "field": "canais",
            "description": "<p>opcional.</p>"
          },
          {
            "group": "Parameter",
            "type": "String",
            "optional": false,
            "field": "idade",
            "description": "<p>opcional.</p>"
          },
          {
            "group": "Parameter",
            "type": "String",
            "optional": false,
            "field": "pais",
            "description": "<p>opcional.</p>"
          },
          {
            "group": "Parameter",
            "type": "String",
            "optional": false,
            "field": "estado",
            "description": "<p>opcional.</p>"
          },
          {
            "group": "Parameter",
            "type": "String",
            "optional": false,
            "field": "timetosend",
            "description": "<p>opcional.</p>"
          }
        ]
      }
    },
    "success": {
      "fields": {
        "Success 200": [
          {
            "group": "Success 200",
            "type": "String",
            "optional": false,
            "field": "status",
            "description": "<p>Criar uma campanha</p>"
          }
        ]
      },
      "examples": [
        {
          "title": "Sucesso",
          "content": "HTTP/1.1 200 OK\n{\n  \"status\": \"Criado.\"\n}",
          "type": "json"
        }
      ]
    },
    "version": "0.0.0",
    "filename": "./campanha.js",
    "groupTitle": "Campanha",
    "name": "PostCampanha"
  },
  {
    "type": "put",
    "url": "/campanha/:identificador",
    "title": "Atualizar dados de campanha",
    "group": "Campanha",
    "parameter": {
      "fields": {
        "Parameter": [
          {
            "group": "Parameter",
            "type": "String",
            "optional": false,
            "field": "identificacao",
            "description": "<p>opcional.</p>"
          },
          {
            "group": "Parameter",
            "type": "String",
            "optional": false,
            "field": "objetivo",
            "description": "<p>opcional.</p>"
          },
          {
            "group": "Parameter",
            "type": "String",
            "optional": false,
            "field": "conteudo",
            "description": "<p>opcional.</p>"
          },
          {
            "group": "Parameter",
            "type": "String",
            "optional": false,
            "field": "canais",
            "description": "<p>opcional.</p>"
          },
          {
            "group": "Parameter",
            "type": "String",
            "optional": false,
            "field": "idade",
            "description": "<p>opcional.</p>"
          },
          {
            "group": "Parameter",
            "type": "String",
            "optional": false,
            "field": "pais",
            "description": "<p>opcional.</p>"
          },
          {
            "group": "Parameter",
            "type": "String",
            "optional": false,
            "field": "estado",
            "description": "<p>opcional.</p>"
          },
          {
            "group": "Parameter",
            "type": "String",
            "optional": false,
            "field": "timetosend",
            "description": "<p>opcional.</p>"
          }
        ]
      }
    },
    "success": {
      "fields": {
        "Success 200": [
          {
            "group": "Success 200",
            "type": "String",
            "optional": false,
            "field": "status",
            "description": "<p>1 record(s) updated</p>"
          }
        ]
      },
      "examples": [
        {
          "title": "Sucesso",
          "content": "HTTP/1.1 200 OK\n{\n  \"status\": \"1 record(s) updated\"\n}",
          "type": "json"
        }
      ]
    },
    "version": "0.0.0",
    "filename": "./campanha.js",
    "groupTitle": "Campanha",
    "name": "PutCampanhaIdentificador"
  },
  {
    "type": "get",
    "url": "/destinatario/:identificador",
    "title": "Um determinado destinatário",
    "group": "Destinatario",
    "success": {
      "fields": {
        "Success 200": [
          {
            "group": "Success 200",
            "type": "String",
            "optional": false,
            "field": "status",
            "description": "<p>Um determinado destinatário</p>"
          }
        ]
      },
      "examples": [
        {
          "title": "Sucesso",
          "content": "HTTP/1.1 200 OK\n{\n  \"id\": 1,\n  \"nome\": \"Nuno\",\n  \"email\": \"nunoneto17@gmail.com\",\n  \"localidade\": \"Porto\",\n  \"pais\": \"Portugal\",\n  \"moeda\": \"Euro\",\n  \"lingua\": \"Portugues\",\n  \"canais\": \"Email\",\n  \"timestamp\": \"\"\n}",
          "type": "json"
        }
      ]
    },
    "version": "0.0.0",
    "filename": "./campanha.js",
    "groupTitle": "Destinatario",
    "name": "GetDestinatarioIdentificador"
  },
  {
    "type": "get",
    "url": "/destinatario/:identificador",
    "title": "Destinatarios",
    "group": "Destinatario",
    "success": {
      "fields": {
        "Success 200": [
          {
            "group": "Success 200",
            "type": "String",
            "optional": false,
            "field": "status",
            "description": "<p>Um determinado destinatário</p>"
          }
        ]
      },
      "examples": [
        {
          "title": "Sucesso",
          "content": "HTTP/1.1 200 OK\n{\n  \"id\": 1,\n  \"nome\": \"Nuno\",\n  \"email\": \"nunoneto17@gmail.com\",\n  \"localidade\": \"Porto\",\n  \"pais\": \"Portugal\",\n  \"moeda\": \"Euro\",\n  \"lingua\": \"Portugues\",\n  \"canais\": \"Email\",\n  \"timestamp\": \"\"\n}",
          "type": "json"
        }
      ]
    },
    "version": "0.0.0",
    "filename": "./campanha.js",
    "groupTitle": "Destinatario",
    "name": "GetDestinatarioIdentificador"
  },
  {
    "type": "post",
    "url": "/destinatario",
    "title": "Criar um destinatario",
    "group": "Destinatario",
    "success": {
      "fields": {
        "Success 200": [
          {
            "group": "Success 200",
            "type": "String",
            "optional": false,
            "field": "status",
            "description": "<p>Criado</p>"
          }
        ]
      },
      "examples": [
        {
          "title": "Sucesso",
          "content": "HTTP/1.1 200 OK\n{\n  \"status\": \"Criado.\"\n}",
          "type": "json"
        }
      ]
    },
    "version": "0.0.0",
    "filename": "./campanha.js",
    "groupTitle": "Destinatario",
    "name": "PostDestinatario"
  }
]
